test/SIMv0.1/Tb_Sync_FIFO.vcd
$date
	Tue Nov 26 20:51:01 2024

$end
$version
	Chronologic Simulation VCS Release T-2022.06_Full64
$end
$timescale
	1ps
$end
$scope module Tb_Sync_FIFO $end
$var integer 32 ! seed [31:0] $end
$var reg 32 " fsdbDump [31:0] $end
$var reg 1 # clk $end
$var reg 1 $ rst_n $end
$var reg 1 % wren $end
$var reg 20 & wdata [19:0] $end
$var reg 1 ' rden $end
$var wire 20 ( rdata [19:0] $end
$var wire 1 ) rddata_valid $end
$var wire 1 * fifo_full $end
$var wire 1 + fifo_empty $end
$var reg 1 , sample_full $end
$var reg 1 - sample_empty $end
$var wire 1 . fifo_almost_full $end
$var wire 1 / fifo_almost_empty $end
$var wire 7 0 fifo_space [6:0] $end
$var integer 32 1 wr_cnt [31:0] $end
$var integer 32 2 rd_cnt [31:0] $end
$var integer 32 3 cnt [31:0] $end
$var reg 32 4 file1 [31:0] $end
$var reg 32 5 file2 [31:0] $end
$scope module u_Sync_FIFO $end
$var wire 1 6 i_rden $end
$var reg 1 7 rddata_valid $end
$var wire 1 8 i_clk $end
$var wire 1 9 i_rst_n $end
$var wire 1 : i_wren $end
$var wire 20 ; i_wdata [19:0] $end
$var wire 20 ( o_rdata [19:0] $end
$var wire 1 ) o_rddata_valid $end
$var wire 1 * o_fifo_full $end
$var wire 1 + o_fifo_empty $end
$var wire 6 < i_cfg_almost_full [5:0] $end
$var wire 6 = i_cfg_almost_empty [5:0] $end
$var wire 1 . o_fifo_almost_full $end
$var wire 1 / o_fifo_almost_empty $end
$var wire 7 0 o_fifo_space [6:0] $end
$var reg 20 > rdata [19:0] $end
$var reg 7 ? fifo_wr_ptr_exp [6:0] $end
$var reg 7 @ fifo_rd_ptr_exp [6:0] $end
$var reg 6 A fifo_wr_ptr [5:0] $end
$var reg 6 B fifo_rd_ptr [5:0] $end
$var reg 1 C ceb $end
$var reg 1 D web $end
$scope module u_TEM5N28HPCPLVTA64X20M4SWBSO $end
$var wire 1 E SLP $end
$var wire 1 F SD $end
$var wire 6 G A [5:0] $end
$var wire 20 ; D [19:0] $end
$var wire 20 H BWEB [19:0] $end
$var wire 1 I WEB $end
$var wire 1 J CEB $end
$var wire 1 8 CLK $end
$var wire 6 K AM [5:0] $end
$var wire 20 L DM [19:0] $end
$var wire 20 M BWEBM [19:0] $end
$var wire 1 N WEBM $end
$var wire 1 O CEBM $end
$var wire 1 P BIST $end
$var wire 20 ( Q [19:0] $end
$var wire 1 Q BIST_i $end
$var wire 1 R SLP_i $end
$var wire 1 S DSLP_i $end
$var wire 1 T SD_i $end
$var wire 1 U CLK_i $end
$var wire 1 V CEB_i $end
$var wire 1 W WEB_i $end
$var wire 6 X A_i [5:0] $end
$var wire 20 Y D_i [19:0] $end
$var wire 20 Z BWEB_i [19:0] $end
$var wire 1 [ CEBM_i $end
$var wire 1 \ WEBM_i $end
$var wire 6 ] AM_i [5:0] $end
$var wire 20 ^ DM_i [19:0] $end
$var wire 20 _ BWEBM_i [19:0] $end
$var wire 20 ` Q_i [19:0] $end
$var reg 20 a Q_d [19:0] $end
$var reg 20 b Q_d_tmp [19:0] $end
$var reg 20 c DIN_tmp [19:0] $end
$var reg 20 d ERR_tmp [19:0] $end
$var reg 4 e row_tmp [3:0] $end
$var reg 2 f col_tmp [1:0] $end
$var integer 32 g i [31:0] $end
$var integer 32 h j [31:0] $end
$var reg 1 i read_flag $end
$var reg 1 j write_flag $end
$var reg 1 k idle_flag $end
$var reg 1 l slp_mode $end
$var reg 1 m dslp_mode $end
$var reg 1 n sd_mode $end
$var reg 1 o clk_latch $end
$var reg 1 p CEBL $end
$var reg 1 q WEBL $end
$var wire 1 r iCEB $end
$var wire 1 s iWEB $end
$var wire 6 t iA [5:0] $end
$var reg 4 u iRowAddr [3:0] $end
$var reg 2 v iColAddr [1:0] $end
$var wire 20 w iD [19:0] $end
$var wire 20 x iBWEB [19:0] $end
$upscope $end
$upscope $end
$upscope $end
$enddefinitions $end
$dumpvars
b00000000000000000000000001100100 !
b00000000000000000000 x
b00000000000000000000000000000001 "
b00000000000000000000 w
b00 v
0$
bx0xxx00xx1xx0x00x000 (
b0000000 0
b0000000 @
b00010001011101001000 `
b00010001011101001000 a
b000000 A
b00000100001010100111 b
b00001111010101010101 c
b1001 u
b00000000000000000000000000000000 1
b000000 B
b10010100111100111110 d
b0101 e
0C
b000000 t
b00 f
b11100100110110100000110011001001 g
0s
0)
b00000000000000000000000000000000 2
0D
b01011111111111011000110110111111 h
0i
0E
0j
0r
0k
b00000000000000000000000000000000 3
0F
0l
xq
xp
0m
b000000 G
0n
0o
0%
0*
b00011010110010010000110100110101 4
b00000000000000000000 H
0I
b10110010100111011001010001100101 5
0J
b000000 K
1+
06
b00000000000000000000 L
b00000000000000000000 M
07
0N
0O
0#
b00000000000000000000 &
0,
08
0P
0Q
09
0R
0S
0-
0:
0T
0U
b00000000000000000000 ;
0V
0W
0'
0.
b000011 <
b000000 X
b00000000000000000000 Y
b000011 =
b00000000000000000000 Z
0[
1/
b00000000000000000000 _
b10101000110000000000 >
0\
b000000 ]
b0000000 ?
b00000000000000000000 ^
$end
#12500
b00000000000000000000 c
b0000 u
1U
0p
b00000000000000000000000000010100 g
1#
0q
1j
1o
18
#25000
0U
0#
0o
08
#30000
1$
19
#37500
1-
1U
1#
1o
18
#38500
b00010010100011110011010111010010 !
#50000
0U
0#
0o
08
#62500
1U
1#
1o
18
#63500
b01110011111011110111100001110000 !
#75000
0U
0#
0o
08
#87500
1U
1#
1o
18
#88500
b10011001010111101111011110111110 !
#100000
0U
0#
0o
08
#112500
1U
1#
1o
18
#113500
b01000111101110000100111100111100 !
#125000
0U
0#
0o
08
#137500
1U
1#
1o
18
#138500
1C
b11100110011011111001 ;
b11100110011011111001 w
b00000000000000000000000000000001 1
1r
1%
1J
b11100110011011111001 &
b01111100110111100110010011100011 !
1:
1V
b11100110011011111001 Y
#150000
08
0o
0U
0#
#162500
1U
1#
0j
b000001 X
1p
b0000001 ?
b000001 G
1o
b0000001 0
b000001 t
1k
18
b000001 A
#163500
0r
0V
0C
0%
0J
0:
b00000100001001111101100000101001 !
#175000
08
0#
0U
0o
#187500
1U
1o
0p
1j
b00100010011011000000 c
b00000000000000000000000000010100 h
1#
0k
b00x0x0x0xxx0xx000000 d
18
b01 v
#188500
b11010010000111011001001001011111 !
#200000
0o
0U
0#
08
#212500
1o
1U
1#
18
#213500
b11111100110111010100100100000101 !
#225000
0o
0U
0#
08
#237500
1o
1U
1#
18
#238500
1C
b00001100011001101001 Y
1V
1:
1r
b00000000000000000000000000000010 1
b00001100011001101001 ;
b00001100011001101001 w
b00110100100000001100010000100000 !
1J
1%
b00001100011001101001 &
#250000
0#
08
0U
0o
#262500
1U
1o
0j
1.
b000010 A
1k
1p
b000010 X
0+
18
b0000010 0
b0000010 ?
b000010 G
1#
b000010 t
#263500
0%
0C
0r
0V
0:
b10101110000001110011011011101110 !
0J
#275000
0U
0o
08
0#
#287500
1j
b10 v
0p
0k
1U
1o
18
1#
0-
b00001100011001101001 c
#288500
b00011100010010101000110111101100 !
#300000
0#
0U
0o
08
#312500
1#
1U
1o
18
#313500
1J
b00011001111001011011 Y
1V
b00011001111001011011 &
1:
b00000000000000000000000000000011 1
1r
1C
1%
b00101101101100011001110101010011 !
b00011001111001011011 ;
b00011001111001011011 w
#325000
08
0#
0U
0o
#337500
1U
1o
b000011 G
0j
b000011 t
b000011 A
b0000011 0
b000011 X
18
1#
1p
b0000011 ?
1k
#338500
b11110111010110110011 ;
b11110111010110110011 &
b11110111010110110011 Y
b00000000000000000000000000000100 1
b11110111010110110011 w
b11011001110011110111001100000110 !
#350000
0U
0o
08
0#
#362500
b11 v
1#
b0000100 ?
b000100 G
b0000100 0
1U
1o
18
b000100 A
b000100 X
b000100 t
#363500
b00000000000000000000000000000101 1
b11011010010110110110100111110101 !
b10110110101110110100 w
b10110110101110110100 ;
b10110110101110110100 &
b10110110101110110100 Y
#375000
0#
0U
0o
08
#387500
1o
18
b000101 X
b0001 u
b000101 t
b00 v
1U
b0000101 0
b000101 A
1#
b0000101 ?
b000101 G
0/
#388500
b10011111110000111101 &
1'
b10011111110000111101 w
b00011110100010011111101111010000 !
b00000000000000000000000000000110 1
16
b10011111110000111101 Y
b10011111110000111101 ;
#400000
0o
08
0U
0#
#412500
1U
1#
1W
b000110 G
1s
17
b000110 X
1)
1I
18
b000110 t
1D
b0000001 @
b000001 B
b0000110 ?
1o
b01 v
b000110 A
#413500
b11001101101011000100001000011110 !
0:
0%
#425000
0#
0U
08
0o
#437500
18
1o
0W
1q
1/
b10 v
b00000000000000000000000000000001 2
0s
1U
0I
0D
1#
b0000010 @
b000010 B
b0000100 0
#438500
0r
0J
0V
0'
b01011001011000010111100010011100 !
06
0C
#450000
0o
08
0U
0#
#462500
1U
1#
1j
0k
b10111111110100111111 c
0q
07
b1x111x1111x1xxx11x1x d
0p
0)
1o
18
b00000000000000000000000000000010 2
#463500
16
1%
1C
1:
1J
b10111111001111011010 ;
b10111111001111011010 w
b10111111001111011010 Y
1r
b10111111001111011010 &
1V
b11101101001010111111000111000011 !
b00000000000000000000000000000111 1
1'
#475000
0#
0U
0o
08
#487500
1o
18
17
b000111 A
b000011 B
b000111 X
1W
1k
b000111 G
0j
1p
1s
b0000011 @
b000111 t
1#
1U
1)
b0000111 ?
1D
1I
#488500
0%
0:
b10101100100000101010100000001001 !
#500000
08
0o
0#
0U
#512500
1#
1U
b00000000000000000000000000000011 2
b0000011 0
0I
b11 v
0W
b000100 B
1o
1q
0D
18
0s
b0000100 @
#513500
0C
06
0'
0J
b10011001011110100001110100111111 !
0r
0V
#525000
0U
0#
0o
08
#537500
1o
18
b00000000000000000000000000000100 2
b00000111000100000010 c
07
0k
0q
1j
0p
b0x000xxx0x0x000000x0 d
1U
1#
0)
#538500
1V
1%
1:
b00000000000000000000000000001000 1
1r
b01111110100001011010 Y
16
1C
b01111110100001011010 w
b01111110100001011010 ;
b00101101001001111110011001100010 !
1'
1J
b01111110100001011010 &
#550000
08
0o
0U
0#
#562500
1U
1#
0j
1)
1s
b0000101 @
b001000 A
b0001000 ?
1I
b001000 X
1p
1W
1k
17
b001000 G
18
1o
1D
b001000 t
b000101 B
#563500
0%
0J
0V
0C
0:
0r
06
0'
b10001001010001100001111110000000 !
#575000
0#
0U
08
0o
#587500
18
b00000000000000000000000000000101 2
b00 v
b0010 u
0)
1i
0s
0D
07
1q
0p
0I
1#
1U
0k
0W
#587510
1o
b00111101100100010101 `
b00111101100100010101 a
bx01x1x0x1x0x000x0x0x (
#588500
1'
b00100010110000010001100101001110 !
1J
1C
1V
1r
16
#600000
08
0U
0#
0o
#612500
1#
1o
1)
b000110 B
1k
b0000110 @
b0000010 0
1U
1W
1p
1D
0i
1s
0q
18
17
1I
#613500
0J
0r
0'
b11001101011010000000111101001100 !
06
0V
0C
#625000
0o
0#
0U
08
#637500
1U
18
07
0k
b00000000000000000000000000000110 2
0I
0)
1#
0W
1i
0D
0p
1q
0s
#637510
1o
#638500
1V
1C
1r
1J
1'
16
b01101110110110001000100011111010 !
#650000
0U
08
0#
0o
#662500
1#
1o
0q
1s
1k
b000111 B
17
0.
18
1p
1W
b0000001 0
b0000111 @
1I
1)
1+
1U
1D
0i
#663500
b11111101110000100011100111011000 !
#675000
0#
0o
08
0U
#687500
18
1U
b001000 B
1-
b00000000000000000000000000000111 2
0s
1q
1o
1#
b0000000 0
0I
0D
0W
b0001000 @
#688500
b10101101000001011110000101100110 !
0C
0r
06
0V
0'
0J
#700000
0U
08
0o
0#
#712500
1o
1#
b00000100100000011010 c
b00000000000000000000000000001000 2
1j
0k
0q
0p
07
1U
18
0)
bx0000x00xx0xx00xxxx0 d
#713500
b00100110000110101110 &
1J
1r
1:
1%
b00000000000000000000000000001001 1
1C
b00100110000110101110 Y
1V
b11010111011100100101111111010101 !
b00100110000110101110 w
b00100110000110101110 ;
#725000
0o
0#
0U
08
#737500
1U
18
b001001 t
b0001001 ?
b001001 A
b0000001 0
1p
0j
b001001 X
1o
1#
1k
b001001 G
#738500
0r
0J
0%
0:
b01110110101101101001010011101011 !
0C
0V
#750000
0U
08
0o
0#
#762500
0k
1#
b00100110000110101110 c
b01 v
0p
1U
18
1o
1j
#763500
1V
1J
b00000000000000000000000000001010 1
b10001011111010001000 ;
b10001011111010001000 w
b10001011111010001000 &
1C
1r
b01000100011110001011110001111110 !
1%
1:
b10001011111010001000 Y
#775000
0#
0U
08
0o
#787500
18
1o
0j
1p
b001010 t
1k
b001010 G
b0000010 0
1.
b001010 A
b0001010 ?
1#
1U
b001010 X
0+
#788500
b00000000000000000000000000001011 1
b11000111010111101100 &
b11000111010111101100 ;
b11000111010111101100 w
b11000111010111101100 Y
b11110110000111000111001011001101 !
#800000
0o
08
0#
0U
#812500
1#
1U
b001011 t
b001011 X
0-
18
b001011 G
b0000011 0
1o
b001011 A
b10 v
b0001011 ?
#813500
0:
1'
b01101001111100011110111010100011 !
0%
16
#825000
0U
0#
08
0o
#837500
b11 v
1o
b0001001 @
1)
1W
1D
b001001 B
1s
1U
1#
18
b0000010 0
1I
17
#838500
b01010111110001110110011111101001 !
#850000
0o
0U
0#
08
#862500
1#
18
0I
b00000000000000000000000000001001 2
0W
b0001010 @
1+
1U
1o
0.
1q
b0000001 0
0s
b001010 B
0D
#863500
b00011110010001010100 w
b00011110010001010100 Y
b00011110010001010100 &
b00000000000000000000000000001100 1
1%
1:
b00101010000000011110001111010100 !
b00011110010001010100 ;
#875000
08
0#
0o
0U
#887500
1o
1U
1D
b001100 t
1W
b001011 B
b00000000000000000000000000001010 2
b0001100 ?
1I
1#
18
b0001011 @
b001100 X
b001100 A
1-
1s
b001100 G
0q
#888500
b11001010011001010100111101011011 !
06
b01010101000110010100 ;
b01010101000110010100 &
b01010101000110010100 Y
b01010101000110010100 w
b00000000000000000000000000001101 1
0'
#900000
0o
0U
0#
08
#912500
1#
18
b001101 G
0D
b00000000000000000000000000001011 2
07
1q
b00 v
b001101 t
b0011 u
0)
0W
1U
1o
0s
b0001101 ?
0I
0+
b001101 X
b0000010 0
b001101 A
1.
#913500
b00000000000000000000000000001110 1
b01100110110001100010101110101110 !
b01100010110011001101 &
b01100010110011001101 ;
b01100010110011001101 w
b01100010110011001101 Y
#925000
08
0#
0U
0o
#937500
1U
1o
b001110 A
b001110 G
b001110 t
b01 v
0q
1#
b0000011 0
b0001110 ?
18
b001110 X
0-
#938500
b10000110000110001000010110111101 !
1'
b10001000011100001100 Y
b10001000011100001100 w
b00000000000000000000000000001111 1
16
b10001000011100001100 ;
b10001000011100001100 &
#950000
0U
0o
0#
08
#962500
1#
18
b001111 t
1D
b001111 X
b001111 G
17
b001100 B
b001111 A
1o
b10 v
1)
b0001100 @
1W
1s
1U
b0001111 ?
1I
#963500
b01101100100010111001011100010011 !
0:
0%
#975000
08
0#
0o
0U
#987500
1o
1U
b00000000000000000000000000001100 2
0D
1#
18
b11 v
b001101 B
1q
b0001101 @
0I
0s
b0000010 0
0W
#988500
1%
1:
b11011000000110101010 w
b11011000000110101010 &
b11011000000110101010 Y
b11011000000110101010 ;
b11010101000011010111111111000110 !
b00000000000000000000000000010000 1
#1000000
0U
0o
08
0#
#1012500
18
1#
1W
b0010000 ?
b010000 G
b010000 t
b010000 X
1o
1D
b00000000000000000000000000001101 2
b010000 A
1s
1U
1I
0q
b001110 B
b0001110 @
#1013500
0%
0V
0C
0J
06
0:
0'
b11101100000111111100100010000100 !
0r
#1025000
08
0#
0o
0U
#1037500
07
1U
b0100 u
0p
0W
1i
1#
18
b00000000000000000000000000001110 2
b00 v
0k
0)
1q
0s
0I
0D
#1037510
1o
b1x1xx000110xx000xxx0 (
b11110000110110001110 a
b11110000110110001110 `
#1038500
1r
16
b11010100111001010000001011110010 !
1J
1C
1V
1'
#1050000
0U
0#
08
0o
#1062500
18
1o
1s
1D
b001111 B
b0000001 0
0.
1I
b0001111 @
1p
17
1W
0i
1U
1#
0q
1)
1k
1+
#1063500
0V
0J
06
b00100011001110100001001010010000 !
0r
0'
0C
#1075000
0o
08
0U
0#
#1087500
1U
1#
0s
0D
1-
0I
0k
0)
0W
b00000000000000000000000000001111 2
18
1q
07
1i
0p
#1087510
1o
#1088500
b10001010010111000110011011011110 !
#1100000
0#
0U
08
0o
#1112500
18
1o
0q
1j
1U
1#
b11011000000110101010 c
0i
#1113500
b01100100100001111101101101011100 !
#1125000
0o
08
0U
0#
#1137500
1o
18
1U
1#
#1138500
b00110000011111111001011110001010 !
#1150000
0o
08
0U
0#
#1162500
1o
18
1U
1#
#1163500
b11000011101110011110111011101000 !
#1175000
0o
08
0U
0#
#1187500
1o
18
1U
1#
#1188500
1%
1C
b00011000010011000010 w
b00000000000000000000000000010001 1
b00011000010011000010 &
1V
1J
b01100001001100011000001011111111 !
b00011000010011000010 ;
1r
1:
b00011000010011000010 Y
#1200000
0#
0U
08
0o
#1212500
18
1o
b010001 G
1.
b0000010 0
0j
b0010001 ?
0+
1p
b010001 X
b010001 t
1#
1U
b010001 A
1k
#1213500
0:
0%
0C
0V
0r
0J
b01001110111110001001001010100101 !
#1225000
0o
08
0#
0U
#1237500
b00011000010011000010 c
1U
0-
1j
0k
b01 v
1o
18
1#
0p
#1238500
b10101110001000001001100000111011 !
#1250000
0U
0o
08
0#
#1262500
1U
1o
18
1#
#1263500
1J
1'
16
1C
b10110001101011001010000101000001 !
1r
1V
#1275000
08
0#
0o
0U
#1287500
1o
1U
1p
b0010000 @
b010000 B
1k
b0000001 0
1D
0.
1s
1#
17
1)
1+
1I
18
0j
1W
#1288500
b10110010010011010110 Y
1:
b10110010010011010110 &
0'
b00000000000000000000000000010010 1
b10110010010011010110 w
06
b01101011011110110010001000001100 !
b10110010010011010110 ;
1%
#1300000
0U
0o
08
0#
#1312500
18
1#
1-
b010010 G
0W
0D
b010010 A
b0000010 0
1o
0)
b0010010 ?
1.
b010010 X
07
0s
1q
1U
0I
0+
b010010 t
b00000000000000000000000000010000 2
#1313500
0%
0J
0V
0r
0:
b11111100100010110000100110111010 !
0C
#1325000
08
0#
0o
0U
#1337500
1o
1U
0-
b1x1xx1x11x1x11xxx11x d
b10110111111011010110 c
1j
0p
0k
1#
b10 v
0q
18
#1338500
b10111010101110000000 Y
b10111010101110000000 ;
b11000000000110111010100110111001 !
1'
1V
1%
1C
b10111010101110000000 &
1J
1:
1r
16
b10111010101110000000 w
b00000000000000000000000000010011 1
#1350000
0U
0o
0#
08
#1362500
1#
18
0j
b010011 G
b010011 t
1D
1k
1W
b0010001 @
b010001 B
1o
1U
1p
17
b010011 A
1)
b0010011 ?
1I
1s
b010011 X
#1363500
0C
b00011000010000101000001001101111 !
0'
0V
0%
06
0r
0J
0:
#1375000
08
0#
0o
0U
#1387500
b00000000000000000000000000010001 2
1U
0s
1q
0W
1i
0D
0k
1#
18
0I
0p
b11 v
07
0)
#1387510
b00011111100100001010 a
1o
b00011111100100001010 `
bx0xx1xxx1x0x0000x0x0 (
#1388500
1J
1'
b10000100111011110001101110010101 !
1C
1r
1V
16
#1400000
0U
0o
08
0#
#1412500
18
1#
17
0i
1)
1W
0q
1s
1o
1I
1D
b0010010 @
1+
b010010 B
b0000001 0
0.
1k
1U
1p
#1413500
0'
0V
0J
0r
06
0C
b01001000001110110010011010101011 !
#1425000
08
0#
0o
0U
#1437500
1-
1U
0W
b00000000000000000000000000010010 2
0p
0)
1i
07
1#
0D
0s
1q
0I
0k
18
#1437510
1o
#1438500
b11110100001111101111 w
b00000000000000000000000000010100 1
1:
b11110111111011110100000100111110 !
b11110100001111101111 ;
b11110100001111101111 Y
1V
1C
1r
b11110100001111101111 &
1J
1%
#1450000
0U
0#
08
0o
#1462500
18
1o
b010100 X
0+
b010100 G
1k
0q
1p
b010100 t
0i
b0000010 0
1U
1#
b0010100 ?
1.
b010100 A
#1463500
0:
b00110010101101010001010010111100 !
0%
0J
0r
0V
0C
#1475000
0o
08
0U
0#
#1487500
b00 v
1j
0-
0k
b11110100001111101111 c
b0101 u
1o
18
1U
1#
0p
#1488500
1r
1V
b01110011101011110011 &
1:
1C
b00000000000000000000000000010101 1
b01110011101011110011 w
b01110011101011110011 ;
1J
b01110011101011110011 Y
1%
b01111001110001110011100001100011 !
#1500000
0#
0U
0o
08
#1512500
1k
18
1p
b010101 A
b010101 X
0j
b010101 G
b0010101 ?
1#
1U
1o
b0000011 0
b010101 t
#1513500
1'
b01011010100000110000 &
b00011000001001011010011101010110 !
16
b01011010100000110000 Y
b00000000000000000000000000010110 1
b01011010100000110000 ;
b01011010100000110000 w
#1525000
08
0o
0#
0U
#1537500
1#
1U
b010110 t
1)
b010110 X
b010110 A
b01 v
1W
1o
b0010110 ?
1I
1D
17
b0010011 @
18
b010011 B
1s
b010110 G
#1538500
b10001110001111110100 ;
b10001110001111110100 &
b00000000000000000000000000010111 1
b10001110001111110100 w
b10001110001111110100 Y
b11111010010110001110000010000101 !
#1550000
0U
0#
0o
08
#1562500
1o
18
0s
b010111 A
b010111 G
1q
b010111 X
b010111 t
b00000000000000000000000000010011 2
1#
1U
0D
b10 v
0W
0I
b010100 B
b0010111 ?
b0010100 @
#1563500
b11001001011100100101000100011011 !
0C
0:
0r
0%
0V
0'
0J
06
#1575000
08
0o
0#
0U
#1587500
1#
1U
0k
0q
0)
b0xxxx000000x000xxx00 d
0p
1o
18
b00001000000100010100 c
b00000000000000000000000000010100 2
1j
b11 v
07
#1588500
16
b00011110001111100110 Y
1J
1%
1C
1:
b11110011000100011110000001101110 !
1r
b00011110001111100110 ;
1'
b00011110001111100110 w
1V
b00000000000000000000000000011000 1
b00011110001111100110 &
#1600000
0U
0#
08
0o
#1612500
18
1o
1)
1s
b0011000 ?
b011000 X
17
b0010101 @
b011000 A
b011000 G
1k
1#
1p
b011000 t
1D
0j
1U
1I
1W
b010101 B
#1613500
0%
0J
06
0C
0:
0r
0V
b01011001001000001011001101101100 !
0'
#1625000
0o
08
0#
0U
#1637500
1#
1U
0W
0s
b00 v
0)
1q
07
0k
1i
0I
b0110 u
0p
18
b00000000000000000000000000010101 2
0D
#1637510
b11101011011100101101 a
b11101011011100101101 `
b1x1010xxx1xx00x0xx0x (
1o
#1638500
b01110101001111000101 &
b11100010100101110101000011010011 !
b01110101001111000101 Y
1J
b00000000000000000000000000011001 1
1%
1V
1:
1C
b01110101001111000101 ;
b01110101001111000101 w
1r
#1650000
0U
0#
08
0o
#1662500
18
1o
b0011001 ?
b0000100 0
b011001 A
b011001 X
1#
1k
b011001 t
b011001 G
0i
0q
1U
1p
#1663500
0r
0J
b11100110000001100100000110011001 !
0%
0C
0V
0:
#1675000
0o
08
0#
0U
#1687500
1#
1U
0p
b01 v
18
b11110101001111111111 c
b1111xxxxxx1111111x1x d
0k
1o
1j
#1688500
1V
b00110001010011011001 w
16
1r
1'
b00110001010011011001 &
1:
b00110001010011011001 Y
1C
b00110001010011011001 ;
1J
b00000000000000000000000000011010 1
1%
b01101100110100110001001101000100 !
#1700000
0U
0#
08
0o
#1712500
18
1o
1k
1W
1)
b010110 B
0j
1D
1s
b0011010 ?
b0010110 @
1#
b011010 G
b011010 X
b011010 A
1p
1I
17
b011010 t
1U
#1713500
b11001000000100000111101110110010 !
0V
0%
0'
0r
06
0:
0J
0C
#1725000
0o
08
0#
0U
#1737500
1#
1U
b00000000000000000000000000010110 2
0W
0s
0k
1q
0p
0D
0)
07
0I
b10 v
18
1i
#1737510
bx01xx0xx1x00000xx0xx (
b00110011100000011011 `
b00110011100000011011 a
1o
#1738500
1C
1'
1V
b10100000110110001110100101010000 !
1J
16
1r
#1750000
0#
0U
08
0o
#1762500
18
1o
0i
1D
1W
1p
b0000011 0
1s
0q
b010111 B
1k
1U
17
b0010111 @
1)
1#
1I
#1763500
b01101001010111000101 w
b01101001010111000101 &
1:
1%
b00000000000000000000000000011011 1
b11100010101001101001001110000111 !
b01101001010111000101 Y
b01101001010111000101 ;
#1775000
0o
08
0U
0#
#1787500
1U
1#
b0011000 @
0D
1q
b011011 t
b00000000000000000000000000010111 2
0I
0s
0W
18
1o
b011000 B
b011011 G
b0011011 ?
b011011 A
b011011 X
#1788500
06
0'
0r
0C
0J
b10001111000101101110100001101101 !
0:
0%
0V
#1800000
0#
0U
08
0o
#1812500
18
1o
0q
b00000000000000000000000000011000 2
1j
0p
1U
b00000000000000000101 c
b11 v
0k
0)
1#
07
b00000x0000x000xxxxxx d
#1813500
1V
1%
b00000001111011000011 Y
b00000001111011000011 ;
b00000001111011000011 &
b00000001111011000011 w
1r
1:
b00000000000000000000000000011100 1
b01100001100000000001110110101000 !
1J
1C
#1825000
0o
08
0#
0U
#1837500
1#
1U
b011100 X
b011100 A
b011100 t
b0000100 0
18
b0011100 ?
0j
b011100 G
1p
1o
1k
#1838500
1'
16
b01101010101010010110 ;
b01101010101010010110 Y
b01101010101010010110 &
b01001011000001101010100010111111 !
b00000000000000000000000000011101 1
b01101010101010010110 w
#1850000
0#
0U
08
0o
#1862500
18
1o
b011101 A
17
1I
1D
b0011001 @
b011101 X
1U
b00 v
1W
1s
b011101 t
b0011101 ?
b011001 B
1#
b011101 G
1)
b0111 u
#1863500
b00100111100001000010 w
b00000000000000000000000000011110 1
b00100111100001000010 ;
b00100001001000100111011111100010 !
b00100111100001000010 Y
b00100111100001000010 &
#1875000
08
0o
0U
0#
#1887500
1U
1#
b00000000000000000000000000011001 2
b011110 A
0D
0I
1q
1o
18
b011110 t
b0011010 @
b011110 X
0s
b01 v
b011110 G
b0011110 ?
0W
b011010 B
#1888500
b10000100101101111011 Y
06
b10000100101101111011 &
0'
b10000100101101111011 w
b10111101111110000100100100000001 !
b00000000000000000000000000011111 1
b10000100101101111011 ;
#1900000
0#
0U
0o
08
#1912500
1o
18
07
b00000000000000000000000000011010 2
0)
b011111 A
0/
1U
1#
b011111 X
0q
b0000101 0
b0011111 ?
b011111 t
b011111 G
b10 v
#1913500
b10001111011001001001 ;
b00000000000000000000000000100000 1
16
b10001111011001001001 Y
b10001111011001001001 &
b00100100111110001111010011001100 !
b10001111011001001001 w
1'
#1925000
0o
08
0U
0#
#1937500
1U
1#
b11 v
1)
b011011 B
1D
b100000 G
1W
17
18
1o
1I
b100000 A
b100000 X
b0011011 @
b100000 t
1s
b0100000 ?
#1938500
b10111101011000100011 ;
b10111101011000100011 w
b00000000000000000000000000100001 1
b00010001110110111101010110110011 !
b10111101011000100011 Y
b10111101011000100011 &
#1950000
0#
0U
08
0o
#1962500
18
1o
b011100 B
b1000 u
b00 v
b0100001 ?
0D
b00000000000000000000000000011011 2
0s
b100001 G
1U
1#
1q
0W
b100001 A
0I
b100001 t
b100001 X
b0011100 @
#1963500
b10110111110100111011 Y
0'
b10110111110100111011 ;
b10110111110100111011 &
06
b10011101111110110111101011100110 !
b10110111110100111011 w
b00000000000000000000000000100010 1
#1975000
0o
08
0U
0#
#1987500
1U
1#
b100010 X
b00000000000000000000000000011100 2
0)
b0100010 ?
b01 v
18
b100010 G
07
b100010 t
0q
1o
b100010 A
b0000110 0
#1988500
b00000000000000000000000000100011 1
b11111001100111101001 Y
b11111001100111101001 w
1'
b11111001100111101001 ;
b11110100100111111001011101010101 !
16
b11111001100111101001 &
#2000000
0#
0U
0o
08
#2012500
1o
18
b100011 A
1)
b0011101 @
b011101 B
b100011 X
1D
1U
17
b0100011 ?
1W
1s
b100011 G
b10 v
1#
1I
b100011 t
#2013500
b11011101111000101111 &
b00000000000000000000000000100100 1
b11011101111000101111 Y
b11011101111000101111 w
b00010111100111011101110010110000 !
b11011101111000101111 ;
#2025000
08
0o
0U
0#
#2037500
1U
1#
b100100 t
b011110 B
0I
b0011110 @
b00000000000000000000000000011101 2
b100100 A
1o
18
0s
b100100 X
0D
0W
b0100100 ?
b11 v
1q
b100100 G
#2038500
b10101000100000101000010111111110 !
0%
0:
#2050000
0#
0U
0o
08
#2062500
1o
18
0q
b0011111 @
b0000101 0
1I
b1001 u
b011111 B
1U
b00000000000000000000000000011110 2
1s
1#
b00 v
1D
1W
#2063500
b11111101111110111001011101111100 !
#2075000
08
0o
0U
0#
#2087500
1U
1#
0I
b0000100 0
1q
b0100000 @
1o
18
1/
0D
0W
b100000 B
b00000000000000000000000000011111 2
0s
#2088500
b10100110000111100100001000100011 !
1:
1%
b11100100010101001100 ;
b11100100010101001100 &
b00000000000000000000000000100101 1
b11100100010101001100 w
b11100100010101001100 Y
#2100000
0U
0#
08
0o
#2112500
18
1o
1s
b00000000000000000000000000100000 2
b100101 G
1I
b100101 t
1#
1U
0q
b100101 X
b100101 A
b0100001 @
b100001 B
1W
1D
b0100101 ?
#2113500
b00100000011000011101 Y
06
b00001110101000100000010000010110 !
b00100000011000011101 w
b00100000011000011101 ;
b00000000000000000000000000100110 1
b00100000011000011101 &
0'
#2125000
0o
08
0#
0U
#2137500
1#
1U
b0100110 ?
b0000101 0
b100110 G
0D
b01 v
b00000000000000000000000000100001 2
0s
0)
18
1o
b100110 X
0I
b100110 t
1q
07
0W
0/
b100110 A
#2138500
0:
0V
0C
0%
0J
b11010101011001011101100101010100 !
0r
#2150000
0#
0U
08
0o
#2162500
18
1o
bx1x1xx1x11xx1x11x111 d
0k
b10 v
0p
1U
1#
1j
b01110010111010111111 c
0q
#2163500
1r
b11010011101110010001001011011011 !
b10010001010110100111 &
1C
b10010001010110100111 Y
1:
1V
1J
b00000000000000000000000000100111 1
1%
b10010001010110100111 ;
b10010001010110100111 w
#2175000
0o
08
0#
0U
#2187500
1#
1U
1k
b0000110 0
b100111 A
b0100111 ?
b100111 G
18
b100111 t
0j
1p
1o
b100111 X
#2188500
1'
16
b10100110100111100000010011100001 !
0:
0%
