test/SIMv0.2/Tb_Sync_FIFO.vcd
$date
	Thu Nov 28 19:34:47 2024

$end
$version
	Chronologic Simulation VCS Release T-2022.06_Full64
$end
$timescale
	1ps
$end
$scope module Tb_Sync_FIFO $end
$var integer 32 ! seed [31:0] $end
$var reg 32 " fsdbDump [31:0] $end
$var reg 1 # clk $end
$var reg 1 $ rst_n $end
$var reg 1 % wren $end
$var reg 20 & wdata [19:0] $end
$var reg 1 ' rden $end
$var wire 20 ( rdata [19:0] $end
$var wire 1 ) rddata_valid $end
$var wire 1 * fifo_full $end
$var wire 1 + fifo_empty $end
$var reg 1 , sample_full $end
$var reg 1 - sample_empty $end
$var wire 1 . fifo_almost_full $end
$var wire 1 / fifo_almost_empty $end
$var wire 7 0 fifo_space [6:0] $end
$var integer 32 1 wr_cnt [31:0] $end
$var integer 32 2 rd_cnt [31:0] $end
$var integer 32 3 cnt [31:0] $end
$var reg 32 4 file1 [31:0] $end
$var reg 32 5 file2 [31:0] $end
$scope module u_Sync_FIFO $end
$var wire 1 6 i_rden $end
$var reg 1 7 rddata_valid $end
$var wire 1 8 i_clk $end
$var wire 1 9 i_rst_n $end
$var wire 1 : i_wren $end
$var wire 20 ; i_wdata [19:0] $end
$var wire 20 ( o_rdata [19:0] $end
$var wire 1 ) o_rddata_valid $end
$var wire 1 * o_fifo_full $end
$var wire 1 + o_fifo_empty $end
$var wire 6 < i_cfg_almost_full [5:0] $end
$var wire 6 = i_cfg_almost_empty [5:0] $end
$var wire 1 . o_fifo_almost_full $end
$var wire 1 / o_fifo_almost_empty $end
$var wire 7 0 o_fifo_space [6:0] $end
$var reg 20 > rdata [19:0] $end
$var reg 7 ? fifo_wr_ptr_exp [6:0] $end
$var reg 7 @ fifo_rd_ptr_exp [6:0] $end
$var reg 6 A fifo_wr_ptr [5:0] $end
$var reg 6 B fifo_rd_ptr [5:0] $end
$var reg 1 C ceb $end
$var reg 1 D web $end
$scope module u_TEM5N28HPCPLVTA64X20M4SWBSO $end
$var wire 1 E SLP $end
$var wire 1 F SD $end
$var wire 6 G A [5:0] $end
$var wire 20 ; D [19:0] $end
$var wire 20 H BWEB [19:0] $end
$var wire 1 I WEB $end
$var wire 1 J CEB $end
$var wire 1 8 CLK $end
$var wire 6 K AM [5:0] $end
$var wire 20 L DM [19:0] $end
$var wire 20 M BWEBM [19:0] $end
$var wire 1 N WEBM $end
$var wire 1 O CEBM $end
$var wire 1 P BIST $end
$var wire 20 ( Q [19:0] $end
$var wire 1 Q BIST_i $end
$var wire 1 R SLP_i $end
$var wire 1 S DSLP_i $end
$var wire 1 T SD_i $end
$var wire 1 U CLK_i $end
$var wire 1 V CEB_i $end
$var wire 1 W WEB_i $end
$var wire 6 X A_i [5:0] $end
$var wire 20 Y D_i [19:0] $end
$var wire 20 Z BWEB_i [19:0] $end
$var wire 1 [ CEBM_i $end
$var wire 1 \ WEBM_i $end
$var wire 6 ] AM_i [5:0] $end
$var wire 20 ^ DM_i [19:0] $end
$var wire 20 _ BWEBM_i [19:0] $end
$var wire 20 ` Q_i [19:0] $end
$var reg 20 a Q_d [19:0] $end
$var reg 20 b Q_d_tmp [19:0] $end
$var reg 20 c DIN_tmp [19:0] $end
$var reg 20 d ERR_tmp [19:0] $end
$var reg 4 e row_tmp [3:0] $end
$var reg 2 f col_tmp [1:0] $end
$var integer 32 g i [31:0] $end
$var integer 32 h j [31:0] $end
$var reg 1 i read_flag $end
$var reg 1 j write_flag $end
$var reg 1 k idle_flag $end
$var reg 1 l slp_mode $end
$var reg 1 m dslp_mode $end
$var reg 1 n sd_mode $end
$var reg 1 o clk_latch $end
$var reg 1 p CEBL $end
$var reg 1 q WEBL $end
$var wire 1 r iCEB $end
$var wire 1 s iWEB $end
$var wire 6 t iA [5:0] $end
$var reg 4 u iRowAddr [3:0] $end
$var reg 2 v iColAddr [1:0] $end
$var wire 20 w iD [19:0] $end
$var wire 20 x iBWEB [19:0] $end
$upscope $end
$upscope $end
$upscope $end
$enddefinitions $end
$dumpvars
b00000000000000000000000001100100 !
b00000000000000000000 x
b00000000000000000000000000000001 "
b00000000000000000000 w
b00 v
0$
bx0xxx00xx1xx0x00x000 (
b0000000 0
b0000000 @
b00010001011101001000 `
b00010001011101001000 a
b000000 A
b00000100001010100111 b
b00001111010101010101 c
b1001 u
b00000000000000000000000000000000 1
b000000 B
b10010100111100111110 d
b0101 e
0C
b000000 t
b00 f
b11100100110110100000110011001001 g
0s
0)
b00000000000000000000000000000000 2
0D
b01011111111111011000110110111111 h
0i
0E
0j
0r
0k
b00000000000000000000000000000000 3
0F
0l
xq
xp
0m
b000000 G
0n
0o
0%
0*
b00011010110010010000110100110101 4
b00000000000000000000 H
0I
b10110010100111011001010001100101 5
0J
b000000 K
1+
06
b00000000000000000000 L
b00000000000000000000 M
07
0N
0O
0#
b00000000000000000000 &
0,
08
0P
0Q
09
0R
0S
0-
0:
0T
0U
b00000000000000000000 ;
0V
0W
0'
0.
b000011 <
b000000 X
b00000000000000000000 Y
b000011 =
b00000000000000000000 Z
0[
1/
b00000000000000000000 _
b10101000110000000000 >
0\
b000000 ]
b0000000 ?
b00000000000000000000 ^
$end
#12500
b00000000000000000000 c
b0000 u
1U
0p
b00000000000000000000000000010100 g
1#
0q
1j
1o
18
#25000
0U
0#
0o
08
#30000
1$
19
#37500
1-
1U
1#
1o
18
#38500
b00010010100011110011010111010010 !
#50000
0U
0#
0o
08
#62500
1U
1#
1o
18
#63500
b01110011111011110111100001110000 !
#75000
0U
0#
0o
08
#87500
1U
1#
1o
18
#88500
b10011001010111101111011110111110 !
#100000
0U
0#
0o
08
#112500
1U
1#
1o
18
#113500
b01000111101110000100111100111100 !
#125000
0U
0#
0o
08
#137500
1U
1#
1o
18
#138500
1C
b11100110011011111001 ;
b11100110011011111001 w
b00000000000000000000000000000001 1
1r
1%
1J
b11100110011011111001 &
b01111100110111100110010011100011 !
1:
1V
b11100110011011111001 Y
#150000
08
0o
0U
0#
#162500
1U
1#
0j
b000001 X
1p
b0000001 ?
b000001 G
1o
b0000001 0
b000001 t
1k
18
b000001 A
#163500
0r
0V
0C
0%
0J
0:
b00000100001001111101100000101001 !
#175000
08
0#
0U
0o
#187500
1U
1o
0p
1j
b00100010011011000000 c
b00000000000000000000000000010100 h
1#
0k
b00x0x0x0xxx0xx000000 d
18
b01 v
#188500
b11010010000111011001001001011111 !
#200000
0o
0U
0#
08
#212500
1o
1U
1#
18
#213500
b11111100110111010100100100000101 !
#225000
0o
0U
0#
08
#237500
1o
1U
1#
18
#238500
1C
b00001100011001101001 Y
1V
1:
1r
b00000000000000000000000000000010 1
b00001100011001101001 ;
b00001100011001101001 w
b00110100100000001100010000100000 !
1J
1%
b00001100011001101001 &
#250000
0#
08
0U
0o
#262500
1U
1o
0j
1.
b000010 A
1k
1p
b000010 X
0+
18
b0000010 0
b0000010 ?
b000010 G
1#
b000010 t
#263500
0%
0C
0r
0V
0:
b10101110000001110011011011101110 !
0J
#275000
0U
0o
08
0#
#287500
1j
b10 v
0p
0k
1U
1o
18
1#
0-
b00001100011001101001 c
#288500
b00011100010010101000110111101100 !
#300000
0#
0U
0o
08
#312500
1#
1U
1o
18
#313500
1J
b00011001111001011011 Y
1V
b00011001111001011011 &
1:
b00000000000000000000000000000011 1
1r
1C
1%
b00101101101100011001110101010011 !
b00011001111001011011 ;
b00011001111001011011 w
#325000
08
0#
0U
0o
#337500
b000011 G
1o
b0000011 0
0j
b000011 t
b000011 A
b000011 X
18
1#
1U
1p
b0000011 ?
1k
#338500
b11011001110011110111001100000110 !
b11110111010110110011 ;
b11110111010110110011 &
b11110111010110110011 Y
b00000000000000000000000000000100 1
b11110111010110110011 w
#350000
0o
08
0#
0U
#362500
1#
1U
b11 v
b0000100 0
b000100 G
18
b000100 A
b0000100 ?
1o
b000100 t
b000100 X
#363500
b00000000000000000000000000000101 1
b11011010010110110110100111110101 !
b10110110101110110100 &
b10110110101110110100 ;
b10110110101110110100 Y
b10110110101110110100 w
#375000
0U
0#
08
0o
#387500
18
1o
b000101 t
b00 v
b0001 u
b000101 X
1#
1U
b000101 G
b0000101 0
b0000101 ?
b000101 A
0/
#388500
b10011111110000111101 w
b00011110100010011111101111010000 !
b00000000000000000000000000000110 1
b10011111110000111101 Y
b10011111110000111101 ;
b10011111110000111101 &
#400000
0o
08
0#
0U
#412500
b01 v
1U
b000110 A
b000110 t
b0000110 ?
1o
18
1#
b0000110 0
b000110 G
b000110 X
#413500
b11001101101011000100001000011110 !
1'
0:
16
0%
#425000
0U
0o
08
0#
#437500
b000001 B
1W
1s
17
1)
1I
b10 v
1U
1o
18
1#
b0000001 @
b0000101 0
1D
#438500
0'
0r
06
0J
0V
b01011001011000010111100010011100 !
0C
#450000
0U
0o
08
0#
#462500
0)
1q
0D
0k
1i
b00000000000000000000000000000001 2
07
0s
0W
1U
18
1#
0I
0p
#462510
1o
b11000101011100011110 a
b11000101011100011110 `
b1xx0xx0xx1xx000xxxx0 (
#463500
1J
1:
b10111111001111011010 ;
1r
b10111111001111011010 &
b11101101001010111111000111000011 !
1%
b10111111001111011010 Y
b10111111001111011010 w
1C
1V
b00000000000000000000000000000111 1
#475000
0U
08
0#
0o
#487500
1p
1o
b000111 G
b0000110 0
0q
b000111 X
0i
1k
b000111 t
1U
18
1#
b0000111 ?
b000111 A
#488500
0:
0%
1'
b10101100100000101010100000001001 !
16
#500000
0o
0U
08
0#
#512500
17
1#
b000010 B
1)
1I
1D
b0000101 0
1W
1o
1U
18
b11 v
b0000010 @
1s
#513500
b10011001011110100001110100111111 !
0r
06
0J
0'
0V
0C
#525000
0#
0o
0U
08
#537500
0I
07
0p
0)
1q
b00000000000000000000000000000010 2
0s
1#
1U
18
0D
0W
1i
0k
#537510
1o
bxxx010xxxx00xxxxxx00 (
b01001011000011111100 `
b01001011000011111100 a
#538500
b00101101001001111110011001100010 !
b01111110100001011010 ;
1C
1:
b01111110100001011010 &
1r
1%
b00000000000000000000000000001000 1
b01111110100001011010 w
b01111110100001011010 Y
1J
1V
#550000
0o
0#
0U
08
#562500
0i
18
b001000 A
1k
b0001000 ?
b001000 X
1p
b001000 G
b001000 t
1o
1#
1U
0q
b0000110 0
#563500
0J
0:
b10001001010001100001111110000000 !
0C
0V
0r
0%
#575000
08
0U
0o
0#
#587500
b0010 u
1#
1j
b00 v
0k
bx0000x00xx0xx00xxxx0 d
18
1U
1o
b00000100100000011010 c
0p
#588500
1r
1'
1V
16
1J
1C
b00100010110000010001100101001110 !
#600000
0#
08
0U
0o
#612500
1p
0j
1)
b0000011 @
1I
17
b0000101 0
b000011 B
1#
18
1U
1o
1s
1D
1W
1k
#613500
0J
0C
b11001101011010000000111101001100 !
0V
0'
0r
06
#625000
0#
08
0U
0o
#637500
0k
07
0p
0W
1i
0I
1q
0)
1#
18
1U
0s
b00000000000000000000000000000011 2
0D
#637510
b00000100100000011010 a
b00000100100000011010 `
bx0x0xx001x00000xx0x0 (
1o
#638500
16
1V
1r
1J
b01101110110110001000100011111010 !
1C
1'
#650000
0#
08
0o
0U
#662500
1s
1U
17
1D
1k
1I
1p
0i
b0000100 @
1W
1/
b000100 B
1#
18
1o
b0000100 0
0q
1)
#663500
b11111101110000100011100111011000 !
#675000
0U
0#
08
0o
#687500
1q
1o
b0000101 @
0s
b00000000000000000000000000000100 2
0D
0I
b0000011 0
1U
1#
18
b000101 B
0W
#688500
0J
b10101101000001011110000101100110 !
06
0r
0V
0C
0'
#700000
0o
08
0U
0#
#712500
07
b00000000000000000000000000000101 2
0q
0)
0p
0k
1j
1o
18
1U
1#
#713500
1:
b00100110000110101110 &
1V
1C
b00100110000110101110 ;
1J
b11010111011100100101111111010101 !
1r
1%
b00100110000110101110 Y
b00000000000000000000000000001001 1
b00100110000110101110 w
#725000
0#
0o
08
0U
#737500
1p
1U
b001001 X
b001001 A
1k
b0001001 ?
b001001 G
1#
1o
18
b001001 t
0j
b0000100 0
#738500
16
0:
1'
0%
b01110110101101101001010011101011 !
#750000
0U
0#
0o
08
#762500
b0000011 0
17
b000110 B
1W
1s
b0000110 @
1)
1U
1#
1o
18
b01 v
1I
1D
#763500
b01000100011110001011110001111110 !
0'
b10001011111010001000 ;
1%
06
b00000000000000000000000000001010 1
b10001011111010001000 Y
b10001011111010001000 &
b10001011111010001000 w
1:
#775000
0#
0U
08
0o
#787500
18
1o
0s
0D
b001010 A
b0000100 0
b001010 X
0W
1q
b00000000000000000000000000000110 2
07
1U
b0001010 ?
0I
1#
0)
b001010 G
b001010 t
#788500
b00000000000000000000000000001011 1
b11110110000111000111001011001101 !
b11000111010111101100 ;
b11000111010111101100 &
b11000111010111101100 Y
b11000111010111101100 w
#800000
0o
08
0U
0#
#812500
1U
1#
b001011 t
0q
b10 v
b001011 X
b0000101 0
b001011 A
18
1o
0/
b001011 G
b0001011 ?
#813500
0%
1'
16
b01101001111100011110111010100011 !
0:
#825000
0#
0U
08
0o
#837500
1)
1o
b11 v
1s
1D
b000111 B
1W
b0000111 @
1#
1U
18
b0000100 0
17
1I
1/
#838500
b01010111110001110110011111101001 !
#850000
0o
0#
0U
08
#862500
1U
18
0s
0D
1q
1#
1o
b00000000000000000000000000000111 2
0I
b001000 B
b0001000 @
b0000011 0
0W
#863500
1:
1%
b00011110010001010100 Y
b00011110010001010100 w
06
b00000000000000000000000000001100 1
b00101010000000011110001111010100 !
b00011110010001010100 &
0'
b00011110010001010100 ;
#875000
08
0U
0#
0o
#887500
1#
1o
b001100 G
b001100 X
07
b0001100 ?
b001100 t
0)
1U
18
b00000000000000000000000000001000 2
b001100 A
b0000100 0
0q
#888500
b01010101000110010100 Y
b01010101000110010100 ;
b01010101000110010100 w
b01010101000110010100 &
b11001010011001010100111101011011 !
b00000000000000000000000000001101 1
#900000
0#
0o
0U
08
#912500
1U
18
b0000101 0
b0011 u
b0001101 ?
0/
b001101 X
b00 v
b001101 G
1o
1#
b001101 t
b001101 A
#913500
b00000000000000000000000000001110 1
b01100010110011001101 Y
b01100110110001100010101110101110 !
b01100010110011001101 &
b01100010110011001101 w
b01100010110011001101 ;
#925000
08
0U
0o
0#
#937500
1o
1#
b001110 t
b001110 X
b001110 A
b0001110 ?
b0000110 0
1U
18
b001110 G
b01 v
#938500
b10001000011100001100 ;
b10001000011100001100 w
b00000000000000000000000000001111 1
b10001000011100001100 &
b10000110000110001000010110111101 !
b10001000011100001100 Y
#950000
0o
0#
0U
08
#962500
1U
18
b10 v
b001111 A
b001111 G
b001111 X
b001111 t
1#
1o
b0000111 0
b0001111 ?
#963500
0%
0:
1'
b01101100100010111001011100010011 !
16
#975000
08
0U
0#
0o
#987500
1#
1o
1s
1W
b0001001 @
17
b11 v
1U
18
1D
b0000110 0
1)
b001001 B
1I
#988500
b11011000000110101010 Y
b11011000000110101010 ;
06
b11010101000011010111111111000110 !
1:
1%
0'
b11011000000110101010 &
b00000000000000000000000000010000 1
b11011000000110101010 w
#1000000
0o
0#
08
0U
#1012500
18
1U
0I
b010000 X
b010000 G
b010000 A
1q
0W
b0010000 ?
0s
1#
0)
b010000 t
1o
07
b00000000000000000000000000001001 2
b0000111 0
0D
#1013500
b11101100000111111100100010000100 !
0C
0V
0:
0J
0r
0%
#1025000
0U
08
0#
0o
#1037500
1j
1o
0p
b11011000000110101010 c
0q
b0100 u
b00 v
1U
18
1#
0k
#1038500
b11010100111001010000001011110010 !
1r
16
1J
1'
1V
1C
#1050000
0o
0U
08
0#
#1062500
1W
1#
b001010 B
b0001010 @
0j
b0000110 0
1p
1I
1D
1k
1s
1o
1U
18
1)
17
#1063500
0'
0V
b00100011001110100001001010010000 !
0C
0J
06
0r
#1075000
0#
08
0o
0U
#1087500
0I
1q
0)
0W
07
0p
1i
b00000000000000000000000000001010 2
0k
1#
18
1U
0s
0D
#1087510
b11011000000110101010 a
1o
b1xxx1000xx0xx0x0x0x0 (
b11011000000110101010 `
#1088500
b10001010010111000110011011011110 !
#1100000
0#
08
0U
0o
#1112500
0q
1j
1#
18
1U
1o
0i
#1113500
b01100100100001111101101101011100 !
16
1'
1J
1r
1C
1V
#1125000
0o
0#
08
0U
#1137500
1I
1D
b001011 B
1s
1p
17
1)
b0001011 @
1W
b0000101 0
1o
1#
18
1U
1k
0j
#1138500
0r
b00110000011111111001011110001010 !
0C
0'
0V
06
0J
#1150000
0o
0#
08
0U
#1162500
0D
0k
0I
1i
0)
0s
07
0p
b00000000000000000000000000001011 2
1#
18
1U
0W
1q
#1162510
1o
#1163500
1'
b11000011101110011110111011101000 !
16
1r
1C
1J
1V
#1175000
0o
0U
0#
08
#1187500
1W
1s
b0001100 @
0q
1D
1)
1k
b001100 B
0i
1I
1/
1o
1U
1#
18
1p
17
b0000100 0
#1188500
b00011000010011000010 ;
b00000000000000000000000000010001 1
06
b00011000010011000010 &
0'
1%
b00011000010011000010 w
b00011000010011000010 Y
b01100001001100011000001011111111 !
1:
#1200000
0o
0U
0#
08
#1212500
07
18
0s
b0000101 0
0W
1q
b010001 A
b010001 X
0)
b010001 G
0D
b00000000000000000000000000001100 2
1o
1U
1#
0/
0I
b010001 t
b0010001 ?
#1213500
1'
b01001110111110001001001010100101 !
16
0%
0:
#1225000
08
0o
0U
0#
#1237500
17
1)
b001101 B
b0001101 @
1s
0q
b0000100 0
1W
18
1o
1U
1#
b01 v
1I
1/
1D
#1238500
0C
0J
b10101110001000001001100000111011 !
06
0'
0r
0V
#1250000
08
0o
0U
0#
#1262500
0D
1q
1i
0s
0k
07
0)
18
1U
1#
0p
0W
b00000000000000000000000000001101 2
0I
#1262510
1o
b10010010100101101110 a
b10010010100101101110 `
b10xxx0x01x0x0xx0xxx0 (
#1263500
1V
b10110001101011001010000101000001 !
1J
1C
1r
1'
16
#1275000
0o
08
0#
0U
#1287500
1I
1U
1k
1s
0i
b0001110 @
0q
b001110 B
1D
1)
1o
18
1#
1W
b0000011 0
1p
17
#1288500
0'
b10110010010011010110 w
1:
b10110010010011010110 &
1%
b10110010010011010110 ;
b00000000000000000000000000010010 1
b10110010010011010110 Y
b01101011011110110010001000001100 !
06
#1300000
0U
08
0o
0#
#1312500
b010010 G
1#
b0010010 ?
1q
b010010 t
07
b010010 X
b00000000000000000000000000001110 2
0I
b010010 A
0s
b0000100 0
1U
18
1o
0D
0)
0W
#1313500
16
0:
1'
0%
b11111100100010110000100110111010 !
#1325000
0#
0U
08
0o
#1337500
1W
1)
1I
0q
b0001111 @
17
1#
1U
18
1o
1s
b0000011 0
1D
b001111 B
b10 v
#1338500
b11000000000110111010100110111001 !
b10111010101110000000 &
b10111010101110000000 Y
0'
1:
1%
b10111010101110000000 w
06
b00000000000000000000000000010011 1
b10111010101110000000 ;
#1350000
08
0#
0U
0o
#1362500
b0010011 ?
1o
1q
b010011 G
0I
b00000000000000000000000000001111 2
0)
b010011 X
b010011 t
0W
b010011 A
18
1#
1U
07
b0000100 0
0s
0D
#1363500
0%
0r
b00011000010000101000001001101111 !
0V
0:
0J
0C
#1375000
0o
08
0#
0U
#1387500
1j
0p
b11 v
b10111010101110000000 c
0q
0k
1o
18
1#
1U
#1388500
1'
1C
1J
1r
b10000100111011110001101110010101 !
1V
16
#1400000
0U
0o
08
0#
#1412500
0j
1D
b010000 B
1k
1s
1)
1p
1I
1U
1o
18
1#
b0010000 @
b0000011 0
1W
17
#1413500
b01001000001110110010011010101011 !
0V
0J
06
0C
0'
0r
#1425000
0U
0o
08
0#
#1437500
0W
0)
0D
07
0s
b00000000000000000000000000010000 2
0k
1i
1U
18
1#
1q
0I
0p
#1437510
b10111010101110000000 `
1o
b101x10x01xxxx0000000 (
b10111010101110000000 a
#1438500
b11110111111011110100000100111110 !
1r
1:
b11110100001111101111 Y
b11110100001111101111 &
1J
1%
1V
b00000000000000000000000000010100 1
b11110100001111101111 ;
1C
b11110100001111101111 w
#1450000
0U
0o
0#
08
#1462500
1#
18
b0010100 ?
b010100 X
1p
b010100 G
1o
0i
b010100 t
1U
0q
b010100 A
b0000100 0
1k
#1463500
16
b00110010101101010001010010111100 !
0:
1'
0%
#1475000
0#
08
0o
0U
#1487500
1o
1U
1W
1I
1s
b00 v
17
1D
1)
b010001 B
18
1#
b0101 u
b0000011 0
b0010001 @
#1488500
1%
06
b01110011101011110011 &
0'
b01110011101011110011 Y
1:
b01110011101011110011 ;
b01111001110001110011100001100011 !
b00000000000000000000000000010101 1
b01110011101011110011 w
#1500000
0o
0U
08
0#
#1512500
18
1#
b010101 A
0D
b010101 X
b00000000000000000000000000010001 2
b0010101 ?
07
0s
0W
0I
1U
0)
b0000100 0
1o
b010101 G
1q
b010101 t
#1513500
b01011010100000110000 w
b01011010100000110000 &
b00000000000000000000000000010110 1
b01011010100000110000 ;
b01011010100000110000 Y
b00011000001001011010011101010110 !
#1525000
0#
08
0U
0o
#1537500
b010110 A
1o
0/
0q
b010110 t
b0010110 ?
b01 v
b010110 X
b0000101 0
1#
18
1U
b010110 G
#1538500
b10001110001111110100 Y
b10001110001111110100 ;
b10001110001111110100 w
b11111010010110001110000010000101 !
b00000000000000000000000000010111 1
b10001110001111110100 &
#1550000
0o
0#
08
0U
#1562500
b010111 A
b010111 G
b0010111 ?
b0000110 0
b010111 t
1o
1#
18
1U
b10 v
b010111 X
#1563500
0r
b11001001011100100101000100011011 !
0J
0%
0V
0C
0:
#1575000
0o
0#
08
0U
#1587500
0p
1U
b11 v
1j
b00001000000100010100 c
0k
b0xxxx000000x000xxx00 d
1o
1#
18
#1588500
b00011110001111100110 Y
1C
b00000000000000000000000000011000 1
b11110011000100011110000001101110 !
b00011110001111100110 &
1r
b00011110001111100110 ;
1:
1V
1%
b00011110001111100110 w
1J
#1600000
0U
0o
0#
08
#1612500
b011000 X
b011000 A
1p
0j
1k
b0011000 ?
b011000 G
1U
1o
1#
18
b0000111 0
b011000 t
#1613500
0C
0%
0J
b01011001001000001011001101101100 !
0V
0r
0:
#1625000
0U
0o
0#
08
#1637500
0p
18
b10111110011111100110 c
0k
1j
b00 v
b1x1xx1xxx111x1xxx11x d
1U
1o
1#
b0110 u
#1638500
b01110101001111000101 w
b01110101001111000101 &
1r
b01110101001111000101 Y
1%
b00000000000000000000000000011001 1
1C
1:
1V
b11100010100101110101000011010011 !
b01110101001111000101 ;
1J
#1650000
08
0U
0o
0#
#1662500
1k
1p
b011001 t
0j
b011001 A
b0001000 0
b011001 X
18
1U
1o
1#
b0011001 ?
b011001 G
#1663500
b11100110000001100100000110011001 !
0J
0%
0r
0V
0C
0:
#1675000
08
0U
0o
0#
#1687500
1j
1#
0k
0p
b11110101001111111111 c
b01 v
18
1U
1o
b1111xxxxxx1111111x1x d
#1688500
b00110001010011011001 ;
b00110001010011011001 &
1C
b00110001010011011001 w
1J
b01101100110100110001001101000100 !
b00110001010011011001 Y
1:
1V
1r
b00000000000000000000000000011010 1
1%
#1700000
0#
08
0U
0o
#1712500
1k
0j
b0011010 ?
1p
b011010 A
b011010 t
b011010 G
1#
18
1U
1o
b0001001 0
b011010 X
#1713500
0r
0%
0J
0C
0V
b11001000000100000111101110110010 !
0:
#1725000
0#
08
0U
0o
#1737500
1j
1o
0k
0p
b00110001010011011001 c
1#
18
1U
b10 v
#1738500
b10100000110110001110100101010000 !
16
1r
1V
1C
1'
1J
#1750000
0o
0#
08
0U
#1762500
18
1U
1s
b0001000 0
0j
17
b0010010 @
1D
1k
1W
1#
b010010 B
1I
1o
1p
1)
#1763500
b11100010101001101001001110000111 !
b00000000000000000000000000011011 1
b01101001010111000101 &
1%
b01101001010111000101 ;
b01101001010111000101 w
0'
1:
b01101001010111000101 Y
06
#1775000
08
0U
0#
0o
#1787500
0D
1o
b0011011 ?
0)
b011011 A
b0001001 0
0s
b011011 X
1q
07
b00000000000000000000000000010010 2
b011011 G
18
1U
1#
0W
0I
b011011 t
#1788500
0%
0:
0C
b10001111000101101110100001101101 !
0J
0V
0r
#1800000
0o
08
0U
0#
#1812500
0p
1#
0q
b00000x0000x000xxxxxx d
b11 v
1j
0k
1o
18
1U
b00000000000000000101 c
#1813500
1:
b00000000000000000000000000011100 1
1r
1V
b00000001111011000011 &
b00000001111011000011 Y
1J
b00000001111011000011 ;
1%
b01100001100000000001110110101000 !
b00000001111011000011 w
1C
#1825000
0U
0#
08
0o
#1837500
1p
1o
b011100 t
b011100 X
b0011100 ?
b0001010 0
b011100 A
0j
1U
1#
18
1k
b011100 G
#1838500
b01101010101010010110 &
b01101010101010010110 w
b00000000000000000000000000011101 1
b01001011000001101010100010111111 !
b01101010101010010110 Y
b01101010101010010110 ;
#1850000
0o
08
0U
0#
#1862500
1U
1#
b0011101 ?
b0111 u
b011101 X
b011101 G
b011101 t
18
b011101 A
b00 v
1o
b0001011 0
#1863500
b00100111100001000010 Y
b00100111100001000010 &
b00100001001000100111011111100010 !
b00100111100001000010 ;
b00000000000000000000000000011110 1
b00100111100001000010 w
#1875000
0U
0#
08
0o
#1887500
18
1o
b0001100 0
b011110 X
b01 v
b0011110 ?
1#
b011110 G
b011110 t
1U
b011110 A
#1888500
b10000100101101111011 w
b00000000000000000000000000011111 1
b10000100101101111011 Y
b10000100101101111011 ;
b10111101111110000100100100000001 !
b10000100101101111011 &
#1900000
08
0o
0#
0U
#1912500
1#
1U
b011111 A
b011111 X
b011111 t
b0001101 0
1o
b10 v
b0011111 ?
18
b011111 G
#1913500
b10001111011001001001 &
b00100100111110001111010011001100 !
b10001111011001001001 w
b10001111011001001001 ;
b10001111011001001001 Y
b00000000000000000000000000100000 1
#1925000
0#
0U
0o
08
#1937500
1o
18
b100000 G
b100000 X
b0100000 ?
b100000 A
1U
b100000 t
b0001110 0
1#
b11 v
#1938500
b00000000000000000000000000100001 1
b10111101011000100011 Y
b10111101011000100011 &
b10111101011000100011 ;
b10111101011000100011 w
b00010001110110111101010110110011 !
#1950000
0o
08
0U
0#
#1962500
1U
1#
b00 v
b100001 X
b1000 u
b0001111 0
b100001 G
18
b0100001 ?
b100001 A
1o
b100001 t
#1963500
b10011101111110110111101011100110 !
b10110111110100111011 w
b00000000000000000000000000100010 1
b10110111110100111011 ;
b10110111110100111011 &
b10110111110100111011 Y
#1975000
0U
0#
08
0o
#1987500
18
1o
b100010 t
b100010 X
b100010 A
b01 v
1#
b0010000 0
b100010 G
1U
b0100010 ?
#1988500
b11111001100111101001 Y
b11111001100111101001 &
b11110100100111111001011101010101 !
b11111001100111101001 ;
b00000000000000000000000000100011 1
b11111001100111101001 w
#2000000
0o
08
0#
0U
#2012500
1#
1U
b100011 X
b100011 t
b0100011 ?
b100011 G
18
b100011 A
b10 v
1o
b0010001 0
#2013500
b11011101111000101111 w
b00000000000000000000000000100100 1
b11011101111000101111 Y
b11011101111000101111 ;
b00010111100111011101110010110000 !
b11011101111000101111 &
#2025000
0U
0#
08
0o
#2037500
18
1o
b100100 t
b100100 X
b0010010 0
b11 v
1#
b0100100 ?
b100100 G
1U
b100100 A
#2038500
16
0:
b10101000100000101000010111111110 !
1'
0%
#2050000
0o
08
0#
0U
#2062500
b0010001 0
1U
1W
1D
1I
b1001 u
1)
b0010011 @
1s
b00 v
1o
18
1#
17
b010011 B
#2063500
b11111101111110111001011101111100 !
#2075000
0U
0o
08
0#
#2087500
18
1#
b010100 B
0W
b0010000 0
1q
0I
0D
1o
1U
b00000000000000000000000000010011 2
b0010100 @
0s
#2088500
b11100100010101001100 &
1%
b11100100010101001100 w
0'
b10100110000111100100001000100011 !
b11100100010101001100 ;
b11100100010101001100 Y
1:
06
b00000000000000000000000000100101 1
#2100000
0#
08
0o
0U
#2112500
1o
1U
0q
b100101 X
0)
07
b0010001 0
b100101 A
b100101 t
18
b100101 G
b00000000000000000000000000010100 2
1#
b0100101 ?
#2113500
b00100000011000011101 &
b00100000011000011101 w
b00000000000000000000000000100110 1
b00100000011000011101 Y
b00100000011000011101 ;
b00001110101000100000010000010110 !
#2125000
0U
0o
08
0#
#2137500
b100110 A
1#
b0010010 0
b100110 X
b100110 t
1U
1o
18
b01 v
b0100110 ?
b100110 G
#2138500
0V
0C
0:
0%
b11010101011001011101100101010100 !
0r
0J
#2150000
0#
0U
0o
08
#2162500
bx1x1xx1x11xx1x11x111 d
b01110010111010111111 c
0k
0p
1#
1U
1o
18
1j
b10 v
#2163500
b11010011101110010001001011011011 !
1%
1V
b10010001010110100111 Y
1r
b10010001010110100111 ;
1J
1:
1C
b00000000000000000000000000100111 1
b10010001010110100111 w
b10010001010110100111 &
#2175000
0#
0U
0o
08
#2187500
0j
18
b0100111 ?
b100111 G
b100111 A
1k
1#
1U
1o
b100111 t
1p
b0010011 0
b100111 X
#2188500
0%
b10100110100111100000010011100001 !
16
1'
0:
#2200000
08
0#
0U
0o
#2212500
b0010101 @
b11 v
b0010010 0
1I
17
1s
1W
b010101 B
1)
18
1#
1U
1o
1D
#2213500
0'
1:
06
1%
b10111110100111111010 Y
b10111110100111111010 ;
b10111110100111111010 w
b10111110100111111010 &
b11111101010110111110011000101100 !
b00000000000000000000000000101000 1
#2225000
0o
08
0#
0U
#2237500
1#
1U
b101000 X
0D
0W
b0101000 ?
1q
0s
07
0I
b0010011 0
18
b00000000000000000000000000010101 2
b101000 A
1o
0)
b101000 G
b101000 t
#2238500
0%
16
1'
0:
b11011110111100010011001011011010 !
#2250000
0#
0U
08
0o
#2262500
18
1o
1D
b0010110 @
17
1s
b1010 u
0q
b00 v
1W
1U
1#
b0010010 0
b010110 B
1)
1I
#2263500
b01000100101111010100000101011001 !
1:
b11010100001010001001 Y
06
1%
0'
b11010100001010001001 &
b00000000000000000000000000101001 1
b11010100001010001001 ;
b11010100001010001001 w
#2275000
0o
08
0#
0U
